<svg width="38" height="38" viewBox="0 0 38 38" version="1.1" xmlns="http://www.w3.org/2000/svg" xmlns:xlink="http://www.w3.org/1999/xlink">
<title>ico-tabs-riwayat</title>
<desc>Created using Figma</desc>
<g id="Canvas" transform="translate(510 -4988)">
<clipPath id="clip-0" clip-rule="evenodd">
<path d="M -598 4405L -238 4405L -238 5045L -598 5045L -598 4405Z" fill="#FFFFFF"/>
</clipPath>
<g id="Riwayat Eviden" clip-path="url(#clip-0)">
<g id="Menu Bar">
<g id="Riwayat">
<g id="Tidak Aktif">
<g id="np_reverse_1199247_0068B7">
<g id="Shape">
<use xlink:href="#path0_fill" transform="translate(-503 4994)" fill="#0052A8"/>
</g>
</g>
</g>
</g>
</g>
</g>
</g>
<defs>
<path id="path0_fill" fill-rule="evenodd" d="M 1.7963 11.0005C 1.7963 4.93506 6.7764 0 12.8987 0C 19.0199 0 24 4.93506 24 10.9995C 24 17.0649 19.0199 22 12.8986 22C 9.91071 22 7.10797 20.8408 5.00586 18.7363L 6.62698 17.1475C 8.29764 18.8203 10.5244 19.7412 12.8987 19.7412C 17.7631 19.7412 21.7198 15.8208 21.7198 11.0005C 21.7198 6.18115 17.7631 2.25977 12.8987 2.25977C 8.03439 2.25977 4.07663 6.18018 4.07663 11.0005L 6.37766 11.0005L 3.18884 14.9546L 0 11.0005L 1.7963 11.0005ZM 11.7585 11.5449L 11.7585 5.21729L 14.0386 5.21729L 14.0377 10.4561L 16.8287 12.6597L 15.4075 14.4272L 11.7585 11.5449Z"/>
</defs>
</svg>
